{
  "swagger": "2.0",
  "info": {
    "title": "Social Network API",
    "description": "Documentation of service Social Network",
    "version": "1.0.0",
    "contact": {
      "name": "Bernar",
      "email": "bernar@gmail.com"
    }
  },
  "tags": [
    {
      "name": "Users"
    },
    {
      "name": "Posts"
    }
  ],
  "host": "localhost:8080",
  "schemes": [
    "http"
  ],
  "consumes": [
    "application/json"
  ],
  "produces": [
    "application/json"
  ],
  "paths": {
    "/api/v1/post": {
      "post": {
        "operationId": "Posts_CreatePost",
        "responses": {
          "200": {
            "description": "A successful response.",
            "schema": {
              "$ref": "#/definitions/social_network_v1CreatePostResponse"
            }
          },
          "default": {
            "description": "An unexpected error response.",
            "schema": {
              "$ref": "#/definitions/rpcStatus"
            }
          }
        },
        "parameters": [
          {
            "name": "info",
            "in": "body",
            "required": true,
            "schema": {
              "$ref": "#/definitions/social_network_v1PostInfo"
            }
          }
        ],
        "tags": [
          "Posts"
        ]
      }
    },
    "/api/v1/post/{id}": {
      "get": {
        "operationId": "Posts_GetPostById",
        "responses": {
          "200": {
            "description": "A successful response.",
            "schema": {
              "$ref": "#/definitions/social_network_v1GetPostByIdResponse"
            }
          },
          "default": {
            "description": "An unexpected error response.",
            "schema": {
              "$ref": "#/definitions/rpcStatus"
            }
          }
        },
        "parameters": [
          {
            "name": "id",
            "in": "path",
            "required": true,
            "type": "string",
            "format": "int64"
          }
        ],
        "tags": [
          "Posts"
        ],
        "security": []
      },
      "delete": {
        "operationId": "Posts_DeletePost",
        "responses": {
          "200": {
            "description": "A successful response.",
            "schema": {
              "$ref": "#/definitions/social_network_v1DeletePostResponse"
            }
          },
          "default": {
            "description": "An unexpected error response.",
            "schema": {
              "$ref": "#/definitions/rpcStatus"
            }
          }
        },
        "parameters": [
          {
            "name": "id",
            "in": "path",
            "required": true,
            "type": "string",
            "format": "int64"
          }
        ],
        "tags": [
          "Posts"
        ]
      },
      "patch": {
        "operationId": "Posts_UpdatePost",
        "responses": {
          "200": {
            "description": "A successful response.",
            "schema": {
              "$ref": "#/definitions/social_network_v1UpdatePostResponse"
            }
          },
          "default": {
            "description": "An unexpected error response.",
            "schema": {
              "$ref": "#/definitions/rpcStatus"
            }
          }
        },
        "parameters": [
          {
            "name": "id",
            "in": "path",
            "required": true,
            "type": "string",
            "format": "int64"
          },
          {
            "name": "info",
            "in": "body",
            "required": true,
            "schema": {
              "$ref": "#/definitions/social_network_v1PostInfo"
            }
          }
        ],
        "tags": [
          "Posts"
        ]
      }
    },
    "/api/v1/posts": {
      "get": {
        "operationId": "Posts_GetPosts",
        "responses": {
          "200": {
            "description": "A successful response.",
            "schema": {
              "$ref": "#/definitions/social_network_v1GetPostsResponse"
            }
          },
          "default": {
            "description": "An unexpected error response.",
            "schema": {
              "$ref": "#/definitions/rpcStatus"
            }
          }
        },
        "parameters": [
          {
            "name": "filter",
            "in": "query",
            "required": false,
            "type": "string"
          },
          {
            "name": "sort",
            "in": "query",
            "required": false,
            "type": "string"
          },
          {
            "name": "order",
            "in": "query",
            "required": false,
            "type": "string"
          },
          {
            "name": "limit",
            "in": "query",
            "required": false,
            "type": "string",
            "format": "int64"
          },
          {
            "name": "offset",
            "in": "query",
            "required": false,
            "type": "string",
            "format": "int64"
          }
        ],
        "tags": [
          "Posts"
        ],
        "security": []
      }
    },
    "/api/v1/user": {
      "post": {
        "operationId": "Users_CreateUser",
        "responses": {
          "200": {
            "description": "A successful response.",
            "schema": {
              "$ref": "#/definitions/social_network_v1CreateUserResponse"
            }
          },
          "default": {
            "description": "An unexpected error response.",
            "schema": {
              "$ref": "#/definitions/rpcStatus"
            }
          }
        },
        "parameters": [
          {
            "name": "info",
            "in": "body",
            "required": true,
            "schema": {
              "$ref": "#/definitions/social_network_v1UserInfo"
            }
          }
        ],
        "tags": [
          "Users"
        ],
        "security": []
      }
    },
    "/api/v1/user/login": {
      "post": {
        "operationId": "Users_AuthenticateUser",
        "responses": {
          "200": {
            "description": "A successful response.",
            "schema": {
              "$ref": "#/definitions/social_network_v1AuthenticateUserResponse"
            }
          },
          "default": {
            "description": "An unexpected error response.",
            "schema": {
              "$ref": "#/definitions/rpcStatus"
            }
          }
        },
        "parameters": [
          {
            "name": "login",
            "in": "body",
            "required": true,
            "schema": {
              "$ref": "#/definitions/social_network_v1Login"
            }
          }
        ],
        "tags": [
          "Users"
        ],
        "security": []
      }
    },
    "/api/v1/user/{id}": {
      "get": {
        "operationId": "Users_GetUserById",
        "responses": {
          "200": {
            "description": "A successful response.",
            "schema": {
              "$ref": "#/definitions/social_network_v1GetUserByIdResponse"
            }
          },
          "default": {
            "description": "An unexpected error response.",
            "schema": {
              "$ref": "#/definitions/rpcStatus"
            }
          }
        },
        "parameters": [
          {
            "name": "id",
            "in": "path",
            "required": true,
            "type": "string",
            "format": "int64"
          }
        ],
        "tags": [
          "Users"
        ],
        "security": []
      },
      "delete": {
        "operationId": "Users_DeleteUser",
        "responses": {
          "200": {
            "description": "A successful response.",
            "schema": {
              "$ref": "#/definitions/social_network_v1DeleteUserResponse"
            }
          },
          "default": {
            "description": "An unexpected error response.",
            "schema": {
              "$ref": "#/definitions/rpcStatus"
            }
          }
        },
        "parameters": [
          {
            "name": "id",
            "in": "path",
            "required": true,
            "type": "string",
            "format": "int64"
          }
        ],
        "tags": [
          "Users"
        ]
      },
      "patch": {
        "operationId": "Users_UpdateUser",
        "responses": {
          "200": {
            "description": "A successful response.",
            "schema": {
              "$ref": "#/definitions/social_network_v1UpdateUserResponse"
            }
          },
          "default": {
            "description": "An unexpected error response.",
            "schema": {
              "$ref": "#/definitions/rpcStatus"
            }
          }
        },
        "parameters": [
          {
            "name": "id",
            "in": "path",
            "required": true,
            "type": "string",
            "format": "int64"
          },
          {
            "name": "info",
            "in": "body",
            "required": true,
            "schema": {
              "$ref": "#/definitions/social_network_v1UserInfo"
            }
          }
        ],
        "tags": [
          "Users"
        ]
      }
    },
    "/api/v1/users": {
      "get": {
        "operationId": "Users_GetUsers",
        "responses": {
          "200": {
            "description": "A successful response.",
            "schema": {
              "$ref": "#/definitions/social_network_v1GetUsersResponse"
            }
          },
          "default": {
            "description": "An unexpected error response.",
            "schema": {
              "$ref": "#/definitions/rpcStatus"
            }
          }
        },
        "parameters": [
          {
            "name": "filter",
            "in": "query",
            "required": false,
            "type": "string"
          },
          {
            "name": "sort",
            "in": "query",
            "required": false,
            "type": "string"
          },
          {
            "name": "order",
            "in": "query",
            "required": false,
            "type": "string"
          },
          {
            "name": "limit",
            "in": "query",
            "required": false,
            "type": "string",
            "format": "int64"
          },
          {
            "name": "offset",
            "in": "query",
            "required": false,
            "type": "string",
            "format": "int64"
          }
        ],
        "tags": [
          "Users"
        ],
        "security": []
      }
    }
  },
  "definitions": {
    "protobufAny": {
      "type": "object",
      "properties": {
        "@type": {
          "type": "string"
        }
      },
      "additionalProperties": {}
    },
    "rpcStatus": {
      "type": "object",
      "properties": {
        "code": {
          "type": "integer",
          "format": "int32"
        },
        "message": {
          "type": "string"
        },
        "details": {
          "type": "array",
          "items": {
            "type": "object",
            "$ref": "#/definitions/protobufAny"
          }
        }
      }
    },
    "social_network_v1AuthenticateUserResponse": {
      "type": "object",
      "properties": {
        "token": {
          "type": "string"
        }
      }
    },
    "social_network_v1CreatePostResponse": {
      "type": "object",
      "properties": {
        "status": {
          "type": "string",
          "format": "int64"
        },
        "message": {
          "type": "string"
        }
      }
    },
    "social_network_v1CreateUserResponse": {
      "type": "object",
      "properties": {
        "status": {
          "type": "string",
          "format": "int64"
        },
        "message": {
          "type": "string"
        }
      }
    },
    "social_network_v1DeletePostResponse": {
      "type": "object",
      "properties": {
        "status": {
          "type": "string",
          "format": "int64"
        },
        "message": {
          "type": "string"
        }
      }
    },
    "social_network_v1DeleteUserResponse": {
      "type": "object",
      "properties": {
        "status": {
          "type": "string",
          "format": "int64"
        },
        "message": {
          "type": "string"
        }
      }
    },
    "social_network_v1GetPostByIdResponse": {
      "type": "object",
      "properties": {
        "post": {
          "$ref": "#/definitions/social_network_v1Post"
        }
      }
    },
    "social_network_v1GetPostsResponse": {
      "type": "object",
      "properties": {
        "posts": {
          "type": "array",
          "items": {
            "type": "object",
            "$ref": "#/definitions/social_network_v1Post"
          }
        }
      }
    },
    "social_network_v1GetUserByIdResponse": {
      "type": "object",
      "properties": {
        "user": {
          "$ref": "#/definitions/social_network_v1User"
        }
      }
    },
    "social_network_v1GetUsersResponse": {
      "type": "object",
      "properties": {
        "users": {
          "type": "array",
          "items": {
            "type": "object",
            "$ref": "#/definitions/social_network_v1User"
          }
        }
      }
    },
    "social_network_v1Login": {
      "type": "object",
      "properties": {
        "email": {
          "type": "string"
        },
        "password": {
          "type": "string"
        }
      }
    },
    "social_network_v1Post": {
      "type": "object",
      "properties": {
        "id": {
          "type": "string",
          "format": "int64"
        },
        "info": {
          "$ref": "#/definitions/social_network_v1PostInfo"
        },
        "createdAt": {
          "type": "string",
          "format": "date-time"
        },
        "updatedAt": {
          "type": "string",
          "format": "date-time"
        }
      }
    },
    "social_network_v1PostInfo": {
      "type": "object",
      "properties": {
        "title": {
          "type": "string"
        },
        "author": {
          "type": "string"
        },
        "text": {
          "type": "string"
        },
        "likes": {
          "type": "string",
          "format": "int64"
        },
        "isPublic": {
          "type": "boolean"
        }
      }
    },
    "social_network_v1UpdatePostResponse": {
      "type": "object",
      "properties": {
        "status": {
          "type": "string",
          "format": "int64"
        },
        "message": {
          "type": "string"
        }
      }
    },
    "social_network_v1UpdateUserResponse": {
      "type": "object",
      "properties": {
        "status": {
          "type": "string",
          "format": "int64"
        },
        "message": {
          "type": "string"
        }
      }
    },
    "social_network_v1User": {
      "type": "object",
      "properties": {
        "id": {
          "type": "string",
          "format": "int64"
        },
        "info": {
          "$ref": "#/definitions/social_network_v1UserInfo"
        },
        "createdAt": {
          "type": "string",
          "format": "date-time"
        },
        "updatedAt": {
          "type": "string",
          "format": "date-time"
        }
      }
    },
    "social_network_v1UserInfo": {
      "type": "object",
      "properties": {
        "name": {
          "type": "string"
        },
        "surname": {
          "type": "string"
        },
        "email": {
          "type": "string"
        },
        "password": {
          "type": "string"
        },
        "isAdmin": {
          "type": "boolean"
        }
      }
    }
  },
  "securityDefinitions": {
    "bearer": {
      "type": "apiKey",
      "description": "Authentication token, input keyword 'Bearer' before input token: Bearer 'token'",
      "name": "Authorization",
      "in": "header"
    }
  },
  "security": [
    {
      "bearer": []
    }
  ]
}
